FinalProject
…
Unfortunately, this is made difficult by how ggplot prefers to use a column for an x value, and a column for a y value.

We will use the gather() function to turn each country into observations with attributes: country, year, gdp

Here, we will also filter our data to only include observations from 2005 to 2019

gdp_tall <- gdp_df %>% 
  gather("year", "gdp", -country) %>%
  filter(year %in% 2005:2019) %>%
  mutate(year = as.integer(year))

gdp_tall

## # A tibble: 2,895 x 3
##    country              year   gdp
##    <chr>               <int> <dbl>
##  1 Afghanistan          2005  1100
##  2 Albania              2005  7430
##  3 Algeria              2005 12400
##  4 Andorra              2005 39800
##  5 Angola               2005  5110
##  6 Antigua and Barbuda  2005 22200
##  7 Argentina            2005 15600
##  8 Armenia              2005  5360
##  9 Australia            2005 39000
## 10 Austria              2005 41300
## # ... with 2,885 more rows
…
Notice how there are a lot of data points that are very far from our line. We can remedy this by centering each countrys mean value on 0

Essentially, we take the mean GDP of across all years, and subtract each of the countrys gdp values by that mean

gdp_adjusted_df <- gdp_tall %>%
  group_by(country) %>%
  mutate(mean_gdp = mean(gdp)) %>%
  mutate(adjusted_gdp = (gdp - mean_gdp) ) %>%
  ungroup()
gdp_adjusted_df

## # A tibble: 2,895 x 5
##    country              year   gdp mean_gdp adjusted_gdp
##    <chr>               <int> <dbl>    <dbl>        <dbl>
##  1 Afghanistan          2005  1100    1581.        -481.
##  2 Albania              2005  7430   10227.       -2797.
##  3 Algeria              2005 12400   13213.        -813.
##  4 Andorra              2005 39800   44653.       -4853.
##  5 Angola               2005  5110    6169.       -1059.
##  6 Antigua and Barbuda  2005 22200   22607.        -407.
##  7 Argentina            2005 15600   18353.       -2753.
##  8 Armenia              2005  5360    7564        -2204 
##  9 Australia            2005 39000   42640        -3640 
## 10 Austria              2005 41300   44240        -2940 
## # ... with 2,885 more rows
…
The black line running through the clusters of points is our line of best fit

Notice how we still have values that our outliers. These come from countries that have have more volatile differences in GDP from year to year

We can standardize the values by dividing each value by the countrys standard deviation, which is derived from all gdp observations from the country

gdp_standardized_df <- gdp_tall %>%
  group_by(country) %>%
  mutate(mean_gdp = mean(gdp)) %>%
  mutate(sd_gdp = sd(gdp)) %>%
  mutate(z_gdp = (gdp - mean_gdp) / sd_gdp) %>%
  ungroup()
gdp_standardized_df

## # A tibble: 2,895 x 6
##    country              year   gdp mean_gdp sd_gdp  z_gdp
##    <chr>               <int> <dbl>    <dbl>  <dbl>  <dbl>
##  1 Afghanistan          2005  1100    1581.   262. -1.84 
##  2 Albania              2005  7430   10227.  1541. -1.82 
##  3 Algeria              2005 12400   13213.   588. -1.38 
##  4 Andorra              2005 39800   44653.  4298. -1.13 
##  5 Angola               2005  5110    6169.   504. -2.10 
##  6 Antigua and Barbuda  2005 22200   22607.  2127. -0.191
##  7 Argentina            2005 15600   18353.  1158. -2.38 
##  8 Armenia              2005  5360    7564   1165. -1.89 
##  9 Australia            2005 39000   42640   2075. -1.75 
## 10 Austria              2005 41300   44240   1446. -2.03 
## # ... with 2,885 more rows
…
